API called for string: Why Did The Beatles Break Up?. (returned): 0.63444036
API called for string: Understanding e to the i pi in 3.14 minutes | DE5. (returned): 0.6013753
API called for string: "Fly Me to the Moon" (La La Land Mashup) ft Rap by David Sikabwe. (returned): 0.15961942
API called for string: Audioslave - Like a Stone (Official Video). (returned): 0.4813175
API called for string: The Redmi K20 Pro Is The New Value Champion. (returned): 0.36388984
API called for string: Led Zeppelin - Stairway to Heaven Live. (returned): 0.5209587
API called for string: Insane Electric Guitar Build From 13,000 Sim Cards Video. (returned): 0.54990166
API called for string: If You Want to Buy a Macbook…. (returned): 0.736619
API called for string: Redmi K20 Pro Review: Should You Buy?. (returned): 0.16678846
API called for string: Realme X vs Redmi K20: The New Mid-Range King?. (returned): 0.10122159
API called for string: Redmi K20 Pro Unboxing . (returned): 0.37906307
